hw4_keyu_chen.utf8
…
Report the value of  used (if elasticnet)

Report the value of  used

Report the estimated coefficients

set.seed(123456789)
fit.enet = cv.glmnet(y~., data=train, 
                     alpha=.5,
                     family="binomial")

broom::tidy(fit.enet) 

#> # A tibble: 72 x 6
#>    lambda estimate std.error conf.low conf.high nzero
#>     <dbl>    <dbl>     <dbl>    <dbl>     <dbl> <int>
#>  1 0.0465    0.170   0.00569    0.164     0.175     0
#>  2 0.0424    0.167   0.00569    0.162     0.173     1
#>  3 0.0386    0.165   0.00559    0.159     0.170     1
#>  4 0.0352    0.162   0.00551    0.156     0.167     2
#>  5 0.0321    0.157   0.00540    0.152     0.163     3
#>  6 0.0292    0.152   0.00520    0.147     0.157     3
#>  7 0.0266    0.147   0.00497    0.142     0.152     3
#>  8 0.0243    0.143   0.00477    0.138     0.148     3
#>  9 0.0221    0.139   0.00458    0.134     0.143     3
#> 10 0.0201    0.135   0.00442    0.131     0.140     3
#> #  with 62 more rows
…
