hw9.utf8
…
Let p(a)p(a), p(b)p(b), and p(a,b)p(a,b) be the actual probabilities of observing items {a}, {b}, and {a,b} respectively in a transaction. What is the expected confidence rule {a}  {b} if a and b are independent?

since we are assuming a and b are independent, P(ab)(a)=P(b|a)P(ab)(a)=P(b|a)

Problem 9.2: Online Retail

The website http://archive.ics.uci.edu/ml/datasets/online+retail describes some transactional data from an online retailer.

Download the excel file to your machine and read it into R.

data.dir = "/Users/cory/Desktop/6018_hw9"
X = read_excel(file.path(data.dir, "Online Retail.xlsx"))
X

#> # A tibble: 541,909 x 8
#>    InvoiceNo StockCode Description Quantity InvoiceDate         UnitPrice
#>    <chr>     <chr>     <chr>          <dbl> <dttm>                  <dbl>
#>  1 536365    85123A    WHITE HANG        6 2010-12-01 08:26:00      2.55
#>  2 536365    71053     WHITE META        6 2010-12-01 08:26:00      3.39
#>  3 536365    84406B    CREAM CUPI        8 2010-12-01 08:26:00      2.75
#>  4 536365    84029G    KNITTED UN        6 2010-12-01 08:26:00      3.39
#>  5 536365    84029E    RED WOOLLY        6 2010-12-01 08:26:00      3.39
#>  6 536365    22752     SET 7 BABU        2 2010-12-01 08:26:00      7.65
#>  7 536365    21730     GLASS STAR        6 2010-12-01 08:26:00      4.25
#>  8 536366    22633     HAND WARME        6 2010-12-01 08:28:00      1.85
#>  9 536366    22632     HAND WARME        6 2010-12-01 08:28:00      1.85
#> 10 536367    84879     ASSORTED C       32 2010-12-01 08:34:00      1.69
#> #  with 541,899 more rows, and 2 more variables: CustomerID <dbl>,
#> #   Country <chr>
…
